rtl/keccak/vcd/keccakf1600.vcd
$date
	Wed Mar 12 12:17:17 2025
$end
$version
	Icarus Verilog
$end
$timescale
	1ps
$end
$scope module keccakf1600_tb $end
$var wire 1 ! o_valid $end
$var wire 1600 " o_state [1599:0] $end
$var reg 1 # i_clk $end
$var reg 1 $ i_rstn $end
$var reg 1600 % i_state [1599:0] $end
$var reg 1 & i_valid $end
$var reg 128 ' taskState [127:0] $end
$var reg 256 ( vcd_file [255:0] $end
$var integer 32 ) err [31:0] $end
$var integer 32 * i [31:0] $end
$scope module u_keccakf1600 $end
$var wire 1 # i_clk $end
$var wire 1 $ i_rstn $end
$var wire 1600 + i_state [1599:0] $end
$var wire 1 & i_valid $end
$var wire 1 ! o_valid $end
$var wire 1600 , o_state [1599:0] $end
$var wire 1600 - lanes_o [1599:0] $end
$var wire 1600 . lanes_i [1599:0] $end
$var parameter 96 / BW_DATA $end
$scope begin genblk1[0] $end
$var parameter 2 0 x $end
$scope begin genblk1[0] $end
$var parameter 2 1 y $end
$upscope $end
$scope begin genblk1[1] $end
$var parameter 2 2 y $end
$upscope $end
$scope begin genblk1[2] $end
$var parameter 3 3 y $end
$upscope $end
$scope begin genblk1[3] $end
$var parameter 3 4 y $end
$upscope $end
$scope begin genblk1[4] $end
$var parameter 4 5 y $end
$upscope $end
$upscope $end
$scope begin genblk1[1] $end
$var parameter 2 6 x $end
$scope begin genblk1[0] $end
$var parameter 2 7 y $end
$upscope $end
$scope begin genblk1[1] $end
$var parameter 2 8 y $end
$upscope $end
$scope begin genblk1[2] $end
$var parameter 3 9 y $end
$upscope $end
$scope begin genblk1[3] $end
$var parameter 3 : y $end
$upscope $end
$scope begin genblk1[4] $end
$var parameter 4 ; y $end
$upscope $end
$upscope $end
$scope begin genblk1[2] $end
$var parameter 3 < x $end
$scope begin genblk1[0] $end
$var parameter 2 = y $end
$upscope $end
$scope begin genblk1[1] $end
$var parameter 2 > y $end
$upscope $end
$scope begin genblk1[2] $end
$var parameter 3 ? y $end
$upscope $end
$scope begin genblk1[3] $end
$var parameter 3 @ y $end
$upscope $end
$scope begin genblk1[4] $end
$var parameter 4 A y $end
$upscope $end
$upscope $end
$scope begin genblk1[3] $end
$var parameter 3 B x $end
$scope begin genblk1[0] $end
$var parameter 2 C y $end
$upscope $end
$scope begin genblk1[1] $end
$var parameter 2 D y $end
$upscope $end
$scope begin genblk1[2] $end
$var parameter 3 E y $end
$upscope $end
$scope begin genblk1[3] $end
$var parameter 3 F y $end
$upscope $end
$scope begin genblk1[4] $end
$var parameter 4 G y $end
$upscope $end
$upscope $end
$scope begin genblk1[4] $end
$var parameter 4 H x $end
$scope begin genblk1[0] $end
$var parameter 2 I y $end
$upscope $end
$scope begin genblk1[1] $end
$var parameter 2 J y $end
$upscope $end
$scope begin genblk1[2] $end
$var parameter 3 K y $end
$upscope $end
$scope begin genblk1[3] $end
$var parameter 3 L y $end
$upscope $end
$scope begin genblk1[4] $end
$var parameter 4 M y $end
$upscope $end
$upscope $end
$scope begin genblk2[0] $end
$var parameter 2 N x $end
$scope begin genblk1[0] $end
$var parameter 2 O y $end
$upscope $end
$scope begin genblk1[1] $end
$var parameter 2 P y $end
$upscope $end
$scope begin genblk1[2] $end
$var parameter 3 Q y $end
$upscope $end
$scope begin genblk1[3] $end
$var parameter 3 R y $end
$upscope $end
$scope begin genblk1[4] $end
$var parameter 4 S y $end
$upscope $end
$upscope $end
$scope begin genblk2[1] $end
$var parameter 2 T x $end
$scope begin genblk1[0] $end
$var parameter 2 U y $end
$upscope $end
$scope begin genblk1[1] $end
$var parameter 2 V y $end
$upscope $end
$scope begin genblk1[2] $end
$var parameter 3 W y $end
$upscope $end
$scope begin genblk1[3] $end
$var parameter 3 X y $end
$upscope $end
$scope begin genblk1[4] $end
$var parameter 4 Y y $end
$upscope $end
$upscope $end
$scope begin genblk2[2] $end
$var parameter 3 Z x $end
$scope begin genblk1[0] $end
$var parameter 2 [ y $end
$upscope $end
$scope begin genblk1[1] $end
$var parameter 2 \ y $end
$upscope $end
$scope begin genblk1[2] $end
$var parameter 3 ] y $end
$upscope $end
$scope begin genblk1[3] $end
$var parameter 3 ^ y $end
$upscope $end
$scope begin genblk1[4] $end
$var parameter 4 _ y $end
$upscope $end
$upscope $end
$scope begin genblk2[3] $end
$var parameter 3 ` x $end
$scope begin genblk1[0] $end
$var parameter 2 a y $end
$upscope $end
$scope begin genblk1[1] $end
$var parameter 2 b y $end
$upscope $end
$scope begin genblk1[2] $end
$var parameter 3 c y $end
$upscope $end
$scope begin genblk1[3] $end
$var parameter 3 d y $end
$upscope $end
$scope begin genblk1[4] $end
$var parameter 4 e y $end
$upscope $end
$upscope $end
$scope begin genblk2[4] $end
$var parameter 4 f x $end
$scope begin genblk1[0] $end
$var parameter 2 g y $end
$upscope $end
$scope begin genblk1[1] $end
$var parameter 2 h y $end
$upscope $end
$scope begin genblk1[2] $end
$var parameter 3 i y $end
$upscope $end
$scope begin genblk1[3] $end
$var parameter 3 j y $end
$upscope $end
$scope begin genblk1[4] $end
$var parameter 4 k y $end
$upscope $end
$upscope $end
$scope module u_keccakf1600lanes $end
$var wire 1 # i_clk $end
$var wire 1600 l i_lanes [1599:0] $end
$var wire 1 $ i_rstn $end
$var wire 1 & i_valid $end
$var wire 65 m mod [64:0] $end
$var wire 1600 n lanes_dff_pre [1599:0] $end
$var parameter 96 o BW_DATA $end
$var parameter 2 p S_COMP $end
$var parameter 2 q S_DONE $end
$var parameter 2 r S_IDLE $end
$var reg 2 s c_state [1:0] $end
$var reg 2 t n_state [1:0] $end
$var reg 1600 u o_lanes [1599:0] $end
$var reg 1 ! o_valid $end
$var reg 8 v r_init [7:0] $end
$var reg 5 w round [4:0] $end
$scope begin genblk1[0] $end
$var parameter 2 x x $end
$scope begin genblk1[0] $end
$var parameter 2 y y $end
$upscope $end
$scope begin genblk1[1] $end
$var parameter 2 z y $end
$upscope $end
$scope begin genblk1[2] $end
$var parameter 3 { y $end
$upscope $end
$scope begin genblk1[3] $end
$var parameter 3 | y $end
$upscope $end
$scope begin genblk1[4] $end
$var parameter 4 } y $end
$upscope $end
$upscope $end
$scope begin genblk1[1] $end
$var parameter 2 ~ x $end
$scope begin genblk1[0] $end
$var parameter 2 !" y $end
$upscope $end
$scope begin genblk1[1] $end
$var parameter 2 "" y $end
$upscope $end
$scope begin genblk1[2] $end
$var parameter 3 #" y $end
$upscope $end
$scope begin genblk1[3] $end
$var parameter 3 $" y $end
$upscope $end
$scope begin genblk1[4] $end
$var parameter 4 %" y $end
$upscope $end
$upscope $end
$scope begin genblk1[2] $end
$var parameter 3 &" x $end
$scope begin genblk1[0] $end
$var parameter 2 '" y $end
$upscope $end
$scope begin genblk1[1] $end
$var parameter 2 (" y $end
$upscope $end
$scope begin genblk1[2] $end
$var parameter 3 )" y $end
$upscope $end
$scope begin genblk1[3] $end
$var parameter 3 *" y $end
$upscope $end
$scope begin genblk1[4] $end
$var parameter 4 +" y $end
$upscope $end
$upscope $end
$scope begin genblk1[3] $end
$var parameter 3 ," x $end
$scope begin genblk1[0] $end
$var parameter 2 -" y $end
$upscope $end
$scope begin genblk1[1] $end
$var parameter 2 ." y $end
$upscope $end
$scope begin genblk1[2] $end
$var parameter 3 /" y $end
$upscope $end
$scope begin genblk1[3] $end
$var parameter 3 0" y $end
$upscope $end
$scope begin genblk1[4] $end
$var parameter 4 1" y $end
$upscope $end
$upscope $end
$scope begin genblk1[4] $end
$var parameter 4 2" x $end
$scope begin genblk1[0] $end
$var parameter 2 3" y $end
$upscope $end
$scope begin genblk1[1] $end
$var parameter 2 4" y $end
$upscope $end
$scope begin genblk1[2] $end
$var parameter 3 5" y $end
$upscope $end
$scope begin genblk1[3] $end
$var parameter 3 6" y $end
$upscope $end
$scope begin genblk1[4] $end
$var parameter 4 7" y $end
$upscope $end
$upscope $end
$scope begin genblk2[0] $end
$var parameter 2 8" x $end
$upscope $end
$scope begin genblk2[1] $end
$var parameter 2 9" x $end
$upscope $end
$scope begin genblk2[2] $end
$var parameter 3 :" x $end
$upscope $end
$scope begin genblk2[3] $end
$var parameter 3 ;" x $end
$upscope $end
$scope begin genblk2[4] $end
$var parameter 4 <" x $end
$upscope $end
$scope begin genblk3[0] $end
$var parameter 2 =" x $end
$scope begin genblk1[0] $end
$var parameter 2 >" y $end
$upscope $end
$scope begin genblk1[1] $end
$var parameter 2 ?" y $end
$upscope $end
$scope begin genblk1[2] $end
$var parameter 3 @" y $end
$upscope $end
$scope begin genblk1[3] $end
$var parameter 3 A" y $end
$upscope $end
$scope begin genblk1[4] $end
$var parameter 4 B" y $end
$upscope $end
$upscope $end
$scope begin genblk3[1] $end
$var parameter 2 C" x $end
$scope begin genblk1[0] $end
$var parameter 2 D" y $end
$upscope $end
$scope begin genblk1[1] $end
$var parameter 2 E" y $end
$upscope $end
$scope begin genblk1[2] $end
$var parameter 3 F" y $end
$upscope $end
$scope begin genblk1[3] $end
$var parameter 3 G" y $end
$upscope $end
$scope begin genblk1[4] $end
$var parameter 4 H" y $end
$upscope $end
$upscope $end
$scope begin genblk3[2] $end
$var parameter 3 I" x $end
$scope begin genblk1[0] $end
$var parameter 2 J" y $end
$upscope $end
$scope begin genblk1[1] $end
$var parameter 2 K" y $end
$upscope $end
$scope begin genblk1[2] $end
$var parameter 3 L" y $end
$upscope $end
$scope begin genblk1[3] $end
$var parameter 3 M" y $end
$upscope $end
$scope begin genblk1[4] $end
$var parameter 4 N" y $end
$upscope $end
$upscope $end
$scope begin genblk3[3] $end
$var parameter 3 O" x $end
$scope begin genblk1[0] $end
$var parameter 2 P" y $end
$upscope $end
$scope begin genblk1[1] $end
$var parameter 2 Q" y $end
$upscope $end
$scope begin genblk1[2] $end
$var parameter 3 R" y $end
$upscope $end
$scope begin genblk1[3] $end
$var parameter 3 S" y $end
$upscope $end
$scope begin genblk1[4] $end
$var parameter 4 T" y $end
$upscope $end
$upscope $end
$scope begin genblk3[4] $end
$var parameter 4 U" x $end
$scope begin genblk1[0] $end
$var parameter 2 V" y $end
$upscope $end
$scope begin genblk1[1] $end
$var parameter 2 W" y $end
$upscope $end
$scope begin genblk1[2] $end
$var parameter 3 X" y $end
$upscope $end
$scope begin genblk1[3] $end
$var parameter 3 Y" y $end
$upscope $end
$scope begin genblk1[4] $end
$var parameter 4 Z" y $end
$upscope $end
$upscope $end
$scope begin genblk4[0] $end
$var parameter 2 [" y $end
$scope begin genblk1[0] $end
$var parameter 2 \" x $end
$upscope $end
$scope begin genblk1[1] $end
$var parameter 2 ]" x $end
$upscope $end
$scope begin genblk1[2] $end
$var parameter 3 ^" x $end
$upscope $end
$scope begin genblk1[3] $end
$var parameter 3 _" x $end
$upscope $end
$scope begin genblk1[4] $end
$var parameter 4 `" x $end
$upscope $end
$upscope $end
$scope begin genblk4[1] $end
$var parameter 2 a" y $end
$scope begin genblk1[0] $end
$var parameter 2 b" x $end
$upscope $end
$scope begin genblk1[1] $end
$var parameter 2 c" x $end
$upscope $end
$scope begin genblk1[2] $end
$var parameter 3 d" x $end
$upscope $end
$scope begin genblk1[3] $end
$var parameter 3 e" x $end
$upscope $end
$scope begin genblk1[4] $end
$var parameter 4 f" x $end
$upscope $end
$upscope $end
$scope begin genblk4[2] $end
$var parameter 3 g" y $end
$scope begin genblk1[0] $end
$var parameter 2 h" x $end
$upscope $end
$scope begin genblk1[1] $end
$var parameter 2 i" x $end
$upscope $end
$scope begin genblk1[2] $end
$var parameter 3 j" x $end
$upscope $end
$scope begin genblk1[3] $end
$var parameter 3 k" x $end
$upscope $end
$scope begin genblk1[4] $end
$var parameter 4 l" x $end
$upscope $end
$upscope $end
$scope begin genblk4[3] $end
$var parameter 3 m" y $end
$scope begin genblk1[0] $end
$var parameter 2 n" x $end
$upscope $end
$scope begin genblk1[1] $end
$var parameter 2 o" x $end
$upscope $end
$scope begin genblk1[2] $end
$var parameter 3 p" x $end
$upscope $end
$scope begin genblk1[3] $end
$var parameter 3 q" x $end
$upscope $end
$scope begin genblk1[4] $end
$var parameter 4 r" x $end
$upscope $end
$upscope $end
$scope begin genblk4[4] $end
$var parameter 4 s" y $end
$scope begin genblk1[0] $end
$var parameter 2 t" x $end
$upscope $end
$scope begin genblk1[1] $end
$var parameter 2 u" x $end
$upscope $end
$scope begin genblk1[2] $end
$var parameter 3 v" x $end
$upscope $end
$scope begin genblk1[3] $end
$var parameter 3 w" x $end
$upscope $end
$scope begin genblk1[4] $end
$var parameter 4 x" x $end
$upscope $end
$upscope $end
$scope begin genblk5[0] $end
$var parameter 2 y" x $end
$scope begin genblk1 $end
$upscope $end
$upscope $end
$scope begin genblk5[1] $end
$var parameter 2 z" x $end
$scope begin genblk1 $end
$upscope $end
$upscope $end
$scope begin genblk5[2] $end
$var parameter 3 {" x $end
$scope begin genblk1 $end
$upscope $end
$upscope $end
$scope begin genblk5[3] $end
$var parameter 3 |" x $end
$scope begin genblk1 $end
$upscope $end
$upscope $end
$scope begin genblk5[4] $end
$var parameter 4 }" x $end
$scope begin genblk1 $end
$upscope $end
$upscope $end
$scope begin genblk5[5] $end
$var parameter 4 ~" x $end
$scope begin genblk1 $end
$upscope $end
$upscope $end
$scope begin genblk5[6] $end
$var parameter 4 !# x $end
$scope begin genblk1 $end
$upscope $end
$upscope $end
$scope begin genblk6[0] $end
$var parameter 2 "# x $end
$scope begin genblk1[0] $end
$var parameter 2 ## y $end
$scope begin genblk1 $end
$upscope $end
$upscope $end
$scope begin genblk1[1] $end
$var parameter 2 $# y $end
$scope begin genblk1 $end
$upscope $end
$upscope $end
$scope begin genblk1[2] $end
$var parameter 3 %# y $end
$scope begin genblk1 $end
$upscope $end
$upscope $end
$scope begin genblk1[3] $end
$var parameter 3 &# y $end
$scope begin genblk1 $end
$upscope $end
$upscope $end
$scope begin genblk1[4] $end
$var parameter 4 '# y $end
$scope begin genblk1 $end
$upscope $end
$upscope $end
$upscope $end
$scope begin genblk6[1] $end
$var parameter 2 (# x $end
$scope begin genblk1[0] $end
$var parameter 2 )# y $end
$scope begin genblk1 $end
$upscope $end
$upscope $end
$scope begin genblk1[1] $end
$var parameter 2 *# y $end
$scope begin genblk1 $end
$upscope $end
$upscope $end
$scope begin genblk1[2] $end
$var parameter 3 +# y $end
$scope begin genblk1 $end
$upscope $end
$upscope $end
$scope begin genblk1[3] $end
$var parameter 3 ,# y $end
$scope begin genblk1 $end
$upscope $end
$upscope $end
$scope begin genblk1[4] $end
$var parameter 4 -# y $end
$scope begin genblk1 $end
$upscope $end
$upscope $end
$upscope $end
$scope begin genblk6[2] $end
$var parameter 3 .# x $end
$scope begin genblk1[0] $end
$var parameter 2 /# y $end
$scope begin genblk1 $end
$upscope $end
$upscope $end
$scope begin genblk1[1] $end
$var parameter 2 0# y $end
$scope begin genblk1 $end
$upscope $end
$upscope $end
$scope begin genblk1[2] $end
$var parameter 3 1# y $end
$scope begin genblk1 $end
$upscope $end
$upscope $end
$scope begin genblk1[3] $end
$var parameter 3 2# y $end
$scope begin genblk1 $end
$upscope $end
$upscope $end
$scope begin genblk1[4] $end
$var parameter 4 3# y $end
$scope begin genblk1 $end
$upscope $end
$upscope $end
$upscope $end
$scope begin genblk6[3] $end
$var parameter 3 4# x $end
$scope begin genblk1[0] $end
$var parameter 2 5# y $end
$scope begin genblk1 $end
$upscope $end
$upscope $end
$scope begin genblk1[1] $end
$var parameter 2 6# y $end
$scope begin genblk1 $end
$upscope $end
$upscope $end
$scope begin genblk1[2] $end
$var parameter 3 7# y $end
$scope begin genblk1 $end
$upscope $end
$upscope $end
$scope begin genblk1[3] $end
$var parameter 3 8# y $end
$scope begin genblk1 $end
$upscope $end
$upscope $end
$scope begin genblk1[4] $end
$var parameter 4 9# y $end
$scope begin genblk1 $end
$upscope $end
$upscope $end
$upscope $end
$scope begin genblk6[4] $end
$var parameter 4 :# x $end
$scope begin genblk1[0] $end
$var parameter 2 ;# y $end
$scope begin genblk1 $end
$upscope $end
$upscope $end
$scope begin genblk1[1] $end
$var parameter 2 <# y $end
$scope begin genblk1 $end
$upscope $end
$upscope $end
$scope begin genblk1[2] $end
$var parameter 3 =# y $end
$scope begin genblk1 $end
$upscope $end
$upscope $end
$scope begin genblk1[3] $end
$var parameter 3 ># y $end
$scope begin genblk1 $end
$upscope $end
$upscope $end
$scope begin genblk1[4] $end
$var parameter 4 ?# y $end
$scope begin genblk1 $end
$upscope $end
$upscope $end
$upscope $end
$scope begin genblk7[0] $end
$var parameter 2 @# x $end
$scope begin genblk1[0] $end
$var parameter 2 A# y $end
$upscope $end
$scope begin genblk1[1] $end
$var parameter 2 B# y $end
$upscope $end
$scope begin genblk1[2] $end
$var parameter 3 C# y $end
$upscope $end
$scope begin genblk1[3] $end
$var parameter 3 D# y $end
$upscope $end
$scope begin genblk1[4] $end
$var parameter 4 E# y $end
$upscope $end
$upscope $end
$scope begin genblk7[1] $end
$var parameter 2 F# x $end
$scope begin genblk1[0] $end
$var parameter 2 G# y $end
$upscope $end
$scope begin genblk1[1] $end
$var parameter 2 H# y $end
$upscope $end
$scope begin genblk1[2] $end
$var parameter 3 I# y $end
$upscope $end
$scope begin genblk1[3] $end
$var parameter 3 J# y $end
$upscope $end
$scope begin genblk1[4] $end
$var parameter 4 K# y $end
$upscope $end
$upscope $end
$scope begin genblk7[2] $end
$var parameter 3 L# x $end
$scope begin genblk1[0] $end
$var parameter 2 M# y $end
$upscope $end
$scope begin genblk1[1] $end
$var parameter 2 N# y $end
$upscope $end
$scope begin genblk1[2] $end
$var parameter 3 O# y $end
$upscope $end
$scope begin genblk1[3] $end
$var parameter 3 P# y $end
$upscope $end
$scope begin genblk1[4] $end
$var parameter 4 Q# y $end
$upscope $end
$upscope $end
$scope begin genblk7[3] $end
$var parameter 3 R# x $end
$scope begin genblk1[0] $end
$var parameter 2 S# y $end
$upscope $end
$scope begin genblk1[1] $end
$var parameter 2 T# y $end
$upscope $end
$scope begin genblk1[2] $end
$var parameter 3 U# y $end
$upscope $end
$scope begin genblk1[3] $end
$var parameter 3 V# y $end
$upscope $end
$scope begin genblk1[4] $end
$var parameter 4 W# y $end
$upscope $end
$upscope $end
$scope begin genblk7[4] $end
$var parameter 4 X# x $end
$scope begin genblk1[0] $end
$var parameter 2 Y# y $end
$upscope $end
$scope begin genblk1[1] $end
$var parameter 2 Z# y $end
$upscope $end
$scope begin genblk1[2] $end
$var parameter 3 [# y $end
$upscope $end
$scope begin genblk1[3] $end
$var parameter 3 \# y $end
$upscope $end
$scope begin genblk1[4] $end
$var parameter 4 ]# y $end
$upscope $end
$upscope $end
$upscope $end
$upscope $end
$scope task init $end
$upscope $end
$scope task resetNCycle $end
$var reg 10 ^# i [9:0] $end
$upscope $end
$scope task vecInsert $end
$var reg 3 _# i [2:0] $end
$upscope $end
$scope task vecVerify $end
$var reg 3 `# i [2:0] $end
$upscope $end
$upscope $end
$enddefinitions $end
$comment Show the parameter values. $end
$dumpall
b100 ]#
b11 \#
b10 [#
b1 Z#
b0 Y#
b100 X#
b100 W#
b11 V#
b10 U#
b1 T#
b0 S#
b11 R#
b100 Q#
b11 P#
b10 O#
b1 N#
b0 M#
b10 L#
b100 K#
b11 J#
b10 I#
b1 H#
b0 G#
b1 F#
b100 E#
b11 D#
b10 C#
b1 B#
b0 A#
b0 @#
b100 ?#
b11 >#
b10 =#
b1 <#
b0 ;#
b100 :#
b100 9#
b11 8#
b10 7#
b1 6#
b0 5#
b11 4#
b100 3#
b11 2#
b10 1#
b1 0#
b0 /#
b10 .#
b100 -#
b11 ,#
b10 +#
b1 *#
b0 )#
b1 (#
b100 '#
b11 &#
b10 %#
b1 $#
b0 ##
b0 "#
b110 !#
b101 ~"
b100 }"
b11 |"
b10 {"
b1 z"
b0 y"
b100 x"
b11 w"
b10 v"
b1 u"
b0 t"
b100 s"
b100 r"
b11 q"
b10 p"
b1 o"
b0 n"
b11 m"
b100 l"
b11 k"
b10 j"
b1 i"
b0 h"
b10 g"
b100 f"
b11 e"
b10 d"
b1 c"
b0 b"
b1 a"
b100 `"
b11 _"
b10 ^"
b1 ]"
b0 \"
b0 ["
b100 Z"
b11 Y"
b10 X"
b1 W"
b0 V"
b100 U"
b100 T"
b11 S"
b10 R"
b1 Q"
b0 P"
b11 O"
b100 N"
b11 M"
b10 L"
b1 K"
b0 J"
b10 I"
b100 H"
b11 G"
b10 F"
b1 E"
b0 D"
b1 C"
b100 B"
b11 A"
b10 @"
b1 ?"
b0 >"
b0 ="
b100 <"
b11 ;"
b10 :"
b1 9"
b0 8"
b100 7"
b11 6"
b10 5"
b1 4"
b0 3"
b100 2"
b100 1"
b11 0"
b10 /"
b1 ."
b0 -"
b11 ,"
b100 +"
b11 *"
b10 )"
b1 ("
b0 '"
b10 &"
b100 %"
b11 $"
b10 #"
b1 ""
b0 !"
b1 ~
b100 }
b11 |
b10 {
b1 z
b0 y
b0 x
b0 r
b10 q
b1 p
b11001000000 o
b100 k
b11 j
b10 i
b1 h
b0 g
b100 f
b100 e
b11 d
b10 c
b1 b
b0 a
b11 `
b100 _
b11 ^
b10 ]
b1 \
b0 [
b10 Z
b100 Y
b11 X
b10 W
b1 V
b0 U
b1 T
b100 S
b11 R
b10 Q
b1 P
b0 O
b0 N
b100 M
b11 L
b10 K
b1 J
b0 I
b100 H
b100 G
b11 F
b10 E
b1 D
b0 C
b11 B
b100 A
b11 @
b10 ?
b1 >
b0 =
b10 <
b100 ;
b11 :
b10 9
b1 8
b0 7
b1 6
b100 5
b11 4
b10 3
b1 2
b0 1
b0 0
b11001000000 /
$end
#0
$dumpvars
bx `#
bx _#
b100 ^#
b0 w
b1 v
b0 u
b0 t
b0 s
b1000000000000000000000000000000000000000000000000000000000000000000000000000000000000000000000000000000000000000000000000000000000000000000000000000000000000000000000000000000000000000000000000000000000000000000000000000000000000000000000000000000000000000000000000000000000000000000000000000000000000000000000000000000000000000000000000000000000000000000000000000000000000000000000000000000000000000000000000000000000000000000000000000000000000000000000000000000000000000000000000000000000000000000000000000000000000000000000000000000000000000000000000000000000000000000000000000000000000000000000000000000000000000000000000000000000000000000000000000000000000000000000000000000000000000000000000000000000000000000000000000000000000000000000000000000000000000000000000000000000000000000000000000000000000000000000000000000000000000000000000000000000000000000000000000000000000000000000000000000000000000000000000000000000000000000000000000000000000000000000000000000000000000000000000000000000000000000000000000000000000000000000000000000000000000000000000000000000000000000000000000000000000000000000000000000000000000000000000000000000000000000000000000000000000000000000000000000000000000000000000000000000000000000000000000000000000000000000000000000000000000000000000000000000000000000000000000000000000000000000000000000000000000000000000000000000000000000000000000000000000000000000000000000000000000000000000000000000000000000000000000000000000000000000000000000000000000000000000000000000000000000000000000000000000000000000000 n
b10000000000000000000000000000000000000000000000000000000000000000 m
b0 l
b0 .
b0 -
b0 ,
b0 +
bx *
b0 )
b1011100010111101110110011000110110010000101111011010110110010101100011011000110110000101101011011001100011000100110110001100000011000000101110011101100110001101100100 (
b101001001100101011100110110010101110100 '
0&
b0 %
0$
0#
b0 "
0!
$end
#5000
1#
#10000
0#
#15000
1#
#20000
0#
#25000
1#
#30000
0#
#35000
1#
#40000
bx .
bx l
b1 t
0#
1&
bx %
bx +
b101011001000101010000110101101100100000001000000011000001011101 '
b0 _#
b0 *
1$
#45000
bx n
b100000000000000000000000000000000000000000000000000000000000000000000000000000000000000000000000000000000000000000000000000000000000000000000000000000000000000000000000000000000000000000000000000000000000000000000000000000000000000000000000000000000000000000000000000000000000000000000000000000000000000000000000000000000000000000000000000000000000000000000000000000000000000000000000000000000000000000000000000000000000000000000000000000000000000000000000000000000000000000000000000000000000000000000000000000000000000000000000000000000000000000000000000000000000000000000000000000000000000000000000000000000000000000000000000000000000000000000000000000000000000000000000000000000000000000000000000000000000000000000000000000000000000000000000000000000000000000000000000000000000000000000000000000000000000000000000000000000000000000000000000000000000000000000000000000000000000000000000000000000000000000000000000000000000000000000000000000000000000000000000000000000000000000000000000000000000000000000000000000000000000000000000000000000000000000000000000000000000000000000000000000000000000000000000000000000000000000000000000000000000000000000000000000000000000000000000000000000000000000000000000000000000000000000000000000000000000000000000000000000000000000000000000000000000000000000000000000000000000000000000000000000000000000000000000000000000000000000000000000000000000000000000000000000000000000000000000000000000000000000000000000000000000000000000000000000000000000000000000000000000000000000000000000000000000000000000000000000000000000000000000000000000000000000000000000000 "
b100000000000000000000000000000000000000000000000000000000000000000000000000000000000000000000000000000000000000000000000000000000000000000000000000000000000000000000000000000000000000000000000000000000000000000000000000000000000000000000000000000000000000000000000000000000000000000000000000000000000000000000000000000000000000000000000000000000000000000000000000000000000000000000000000000000000000000000000000000000000000000000000000000000000000000000000000000000000000000000000000000000000000000000000000000000000000000000000000000000000000000000000000000000000000000000000000000000000000000000000000000000000000000000000000000000000000000000000000000000000000000000000000000000000000000000000000000000000000000000000000000000000000000000000000000000000000000000000000000000000000000000000000000000000000000000000000000000000000000000000000000000000000000000000000000000000000000000000000000000000000000000000000000000000000000000000000000000000000000000000000000000000000000000000000000000000000000000000000000000000000000000000000000000000000000000000000000000000000000000000000000000000000000000000000000000000000000000000000000000000000000000000000000000000000000000000000000000000000000000000000000000000000000000000000000000000000000000000000000000000000000000000000000000000000000000000000000000000000000000000000000000000000000000000000000000000000000000000000000000000000000000000000000000000000000000000000000000000000000000000000000000000000000000000000000000000000000000000000000000000000000000000000000000000000000000000000000000000000000000000000000000000000000000000000000000 ,
b1000000000000000000000000000000000000000000000000000000000000000000000000000000000000000000000000000000000000000000000000000000000000000000000000000000000000000000000000000000000000000000000000000000000000000000000000000000000000000000000000000000000000000000000000000000000000000000000000000000000000000000000000000000000000000000000000000000000000000000000000000000000000000000000000000000000000000000000000000000000000000000000000000000000000000000000000000000000000000000000000000000000000000000000000000000000000000000000000000000000000000000000000000000000000000000000000000000000000000000000000000000000000000000000000000000000000000000000000000000000000000000000000000000000000000000000000000000000000000000000000000000000000000000000000000000000000000000000000000000000000000000000000000000000000000000000000000000000000000000000000000000000000000000000000000000000000000000000000000000000000000000000000000000000000000000000000000000000000000000000000000000000000000000000000000000000000000000000000000000000000000000000000000000000000000000000000000000000000000000000000000000000000000000000000000000000000000000000000000000000000000000000000000000000000000000000000000000000000000000000000000000000000000000000000000000000000000000000000000000000000000000000000000000000000000000000000000000000000000000000000000000000000000000000000000000000000000000000000000000000000000000000000000000000000000000000000000000000000000000000000000000000000000000000000000000000000000000000000000000000000000000000000000000000000000000000000 -
b1000000000000000000000000000000000000000000000000000000000000000000000000000000000000000000000000000000000000000000000000000000000000000000000000000000000000000000000000000000000000000000000000000000000000000000000000000000000000000000000000000000000000000000000000000000000000000000000000000000000000000000000000000000000000000000000000000000000000000000000000000000000000000000000000000000000000000000000000000000000000000000000000000000000000000000000000000000000000000000000000000000000000000000000000000000000000000000000000000000000000000000000000000000000000000000000000000000000000000000000000000000000000000000000000000000000000000000000000000000000000000000000000000000000000000000000000000000000000000000000000000000000000000000000000000000000000000000000000000000000000000000000000000000000000000000000000000000000000000000000000000000000000000000000000000000000000000000000000000000000000000000000000000000000000000000000000000000000000000000000000000000000000000000000000000000000000000000000000000000000000000000000000000000000000000000000000000000000000000000000000000000000000000000000000000000000000000000000000000000000000000000000000000000000000000000000000000000000000000000000000000000000000000000000000000000000000000000000000000000000000000000000000000000000000000000000000000000000000000000000000000000000000000000000000000000000000000000000000000000000000000000000000000000000000000000000000000000000000000000000000000000000000000000000000000000000000000000000000000000000000000000000000000000000000000000000000 u
b1 s
1#
#50000
0#
0&
#55000
bx "
bx ,
b1 w
b10000000 v
bx -
bx u
1#
#60000
0#
#65000
b11011000 v
b10 w
1#
#70000
0#
#75000
b11 w
b11010 v
1#
#80000
0#
#85000
b11011111 v
b100 w
1#
#90000
0#
#95000
b101 w
b1001 v
1#
#100000
0#
#105000
b110101 v
b110 w
1#
#110000
0#
#115000
b111 w
b1001111 v
1#
#120000
0#
#125000
b11001010 v
b1000 w
1#
#130000
0#
#135000
b1001 w
b1110000 v
1#
#140000
0#
#145000
b1000001 v
b1010 w
1#
#150000
0#
#155000
b1011 w
b11101100 v
1#
#160000
0#
#165000
b11010101 v
b1100 w
1#
#170000
0#
#175000
b1101 w
b11001101 v
1#
#180000
0#
#185000
b1100011 v
b1110 w
1#
#190000
0#
#195000
b1111 w
b10101011 v
1#
#200000
0#
#205000
b10101010 v
b10000 w
1#
#210000
0#
#215000
b10001 w
b101010 v
1#
#220000
0#
#225000
b11110010 v
b10010 w
1#
#230000
0#
#235000
b10011 w
b11101000 v
1#
#240000
0#
#245000
b110111 v
b10100 w
1#
#250000
0#
#255000
b10101 w
b111110 v
1#
#260000
0#
#265000
b1011 v
b10110 w
1#
#270000
0#
#275000
b10 t
b10111 w
b1000100 v
1#
#280000
0#
#285000
1!
b0 t
b10001110 v
b10 s
b0 w
1#
#290000
0#
b0 `#
